{
  "connectivityName": "connection-42-81",
  "rerouteType": "LOOSE",
  "suggestedPath": {
    "devices": [
      {
        "deviceId": "of:1000000000000004"
      },
      {
        "deviceId": "of:1000000000000007"
      },
      {
        "deviceId": "of:1000000000000008"
      }
    ]
  }
}