module sigs.k8s.io/scheduler-plugins

go 1.15

require (
	github.com/google/go-cmp v0.5.2
	github.com/google/uuid v1.1.1
	github.com/k8stopologyawareschedwg/noderesourcetopology-api v0.0.8
	github.com/patrickmn/go-cache v2.1.0+incompatible
	github.com/paypal/load-watcher v0.1.1
	github.com/spf13/pflag v1.0.5
	github.com/stretchr/testify v1.5.1
	k8s.io/api v0.19.9
	k8s.io/apiextensions-apiserver v0.0.0
	k8s.io/apimachinery v0.19.9
	k8s.io/apiserver v0.19.9
	k8s.io/client-go v0.19.9
	k8s.io/code-generator v0.19.9
	k8s.io/component-base v0.19.9
	k8s.io/klog/v2 v2.2.0
	k8s.io/kube-aggregator v0.0.0
	k8s.io/kube-openapi v0.0.0-20200805222855-6aeccd4b50c6
	k8s.io/kube-scheduler v0.19.9
	k8s.io/kubernetes v1.19.9
)

replace (
	k8s.io/api => k8s.io/api v0.19.9
	k8s.io/apiextensions-apiserver => k8s.io/apiextensions-apiserver v0.19.9
	k8s.io/apimachinery => k8s.io/apimachinery v0.19.9
	k8s.io/apiserver => k8s.io/apiserver v0.19.9
	k8s.io/cli-runtime => k8s.io/cli-runtime v0.19.9
	k8s.io/client-go => k8s.io/client-go v0.19.9
	k8s.io/cloud-provider => k8s.io/cloud-provider v0.19.9
	k8s.io/cluster-bootstrap => k8s.io/cluster-bootstrap v0.19.9
	k8s.io/code-generator => k8s.io/code-generator v0.19.9
	k8s.io/component-base => k8s.io/component-base v0.19.9
	k8s.io/cri-api => k8s.io/cri-api v0.19.9
	k8s.io/csi-translation-lib => k8s.io/csi-translation-lib v0.19.9
	k8s.io/kube-aggregator => k8s.io/kube-aggregator v0.19.9
	k8s.io/kube-controller-manager => k8s.io/kube-controller-manager v0.19.9
	k8s.io/kube-proxy => k8s.io/kube-proxy v0.19.9
	k8s.io/kube-scheduler => k8s.io/kube-scheduler v0.19.9
	k8s.io/kubectl => k8s.io/kubectl v0.19.9
	k8s.io/kubelet => k8s.io/kubelet v0.19.9
	k8s.io/kubernetes => k8s.io/kubernetes v1.19.9
	k8s.io/legacy-cloud-providers => k8s.io/legacy-cloud-providers v0.19.9
	k8s.io/metrics => k8s.io/metrics v0.19.9
	k8s.io/sample-apiserver => k8s.io/sample-apiserver v0.19.9
)
